module gitlab.com/T1960CT/text2image

go 1.16

require (
	github.com/davecgh/go-spew v1.1.1 // indirect
	github.com/stretchr/testify v1.7.0
	golang.org/x/image v0.0.0-20210628002857-a66eb6448b8d
	gopkg.in/yaml.v3 v3.0.0-20210107192922-496545a6307b // indirect
)
